; Engine configuration file.
; It's best edited using the editor UI and not directly,
; since the parameters that go here are not all obvious.
;
; Format:
;   [section] ; section goes between []
;   param=value ; assign values to parameters

config_version=4

_global_script_classes=[  ]
_global_script_class_icons={

}

[application]

config/name="Grid Click Move With Networking"
run/main_scene="res://Network.tscn"
config/icon="res://icon.png"

[autoload]

GLOBAL="*res://scripts/GLOBAL.gd"

[display]

window/size/width=430
window/size/height=720

[rendering]

environment/default_environment="res://default_env.tres"
